<?xml version="1.0" encoding="UTF-8" standalone="no"?>
<!-- Created with Inkscape (http://www.inkscape.org/) -->

<svg
   xmlns:dc="http://purl.org/dc/elements/1.1/"
   xmlns:cc="http://creativecommons.org/ns#"
   xmlns:rdf="http://www.w3.org/1999/02/22-rdf-syntax-ns#"
   xmlns:svg="http://www.w3.org/2000/svg"
   xmlns="http://www.w3.org/2000/svg"
   xmlns:sodipodi="http://sodipodi.sourceforge.net/DTD/sodipodi-0.dtd"
   xmlns:inkscape="http://www.inkscape.org/namespaces/inkscape"
   version="1.1"
   id="svg2"
   xml:space="preserve"
   width="255.10616"
   height="225.48428"
   viewBox="0 0 255.10615 225.48428"
   sodipodi:docname="monopool_antenne.svg"
   inkscape:version="0.92.2 2405546, 2018-03-11"
   inkscape:export-filename="/home/shady/Gitkraken/ELEC/courseRepositories/elektromagnetisme/Labo/source_files/Tekeningen Labo's/monopool_antenne.png"
   inkscape:export-xdpi="600.03387"
   inkscape:export-ydpi="600.03387"><metadata
     id="metadata8"><rdf:RDF><cc:Work
         rdf:about=""><dc:format>image/svg+xml</dc:format><dc:type
           rdf:resource="http://purl.org/dc/dcmitype/StillImage" /><dc:title /></cc:Work></rdf:RDF></metadata><defs
     id="defs6"><clipPath
       clipPathUnits="userSpaceOnUse"
       id="clipPath18"><path
         d="M 0,0 H 595.2 V 841.8 H 0 Z"
         id="path16"
         inkscape:connector-curvature="0"
         style="clip-rule:evenodd" /></clipPath></defs><sodipodi:namedview
     pagecolor="#ffffff"
     bordercolor="#666666"
     borderopacity="1"
     objecttolerance="10"
     gridtolerance="10"
     guidetolerance="10"
     inkscape:pageopacity="0"
     inkscape:pageshadow="2"
     inkscape:window-width="1920"
     inkscape:window-height="1013"
     id="namedview4"
     showgrid="false"
     fit-margin-top="5"
     fit-margin-left="5"
     fit-margin-right="5"
     fit-margin-bottom="5"
     inkscape:zoom="1.681987"
     inkscape:cx="223.56163"
     inkscape:cy="137.05171"
     inkscape:window-x="0"
     inkscape:window-y="0"
     inkscape:window-maximized="1"
     inkscape:current-layer="g10" /><g
     id="g10"
     inkscape:groupmode="layer"
     inkscape:label="monopool_antenne"
     transform="matrix(1.3333333,0,0,-1.3333333,-335.64691,236.88428)"><path
   inkscape:connector-curvature="0"
   id="path22"
   style="fill:none;stroke:#000000;stroke-width:3.00000008;stroke-linecap:round;stroke-linejoin:round;stroke-miterlimit:10;stroke-dasharray:none;stroke-opacity:1"
   d="m 348.6,171.6 0.3,-76.8"
   inkscape:export-xdpi="600.03387"
   inkscape:export-ydpi="600.03387" /><path
   inkscape:connector-curvature="0"
   id="path26"
   style="fill:none;stroke:#000000;stroke-width:0.75000002;stroke-linecap:round;stroke-linejoin:round;stroke-miterlimit:10;stroke-dasharray:none;stroke-opacity:1"
   d="m 399.6,71.4 39.6,43.2"
   inkscape:export-xdpi="600.03387"
   inkscape:export-ydpi="600.03387" /><path
   inkscape:connector-curvature="0"
   id="path30"
   style="fill:none;stroke:#000000;stroke-width:0.75000002;stroke-linecap:round;stroke-linejoin:round;stroke-miterlimit:10;stroke-dasharray:none;stroke-opacity:1"
   d="m 255.6,71.4 h 144"
   inkscape:export-xdpi="600.03387"
   inkscape:export-ydpi="600.03387" /><path
   inkscape:connector-curvature="0"
   id="path34"
   style="fill:none;stroke:#000000;stroke-width:0.75000002;stroke-linecap:round;stroke-linejoin:round;stroke-miterlimit:10;stroke-dasharray:none;stroke-opacity:1"
   d="m 295.2,114.6 h 144"
   inkscape:export-xdpi="600.03387"
   inkscape:export-ydpi="600.03387" /><text
   id="text40"
   style="font-variant:normal;font-weight:normal;font-size:8px;font-family:'Nimbus Sans';-inkscape-font-specification:NimbusSans;writing-mode:lr-tb;fill:#000000;fill-opacity:1;fill-rule:nonzero;stroke:none"
   transform="scale(1,-1)"
   x="361.74252"
   y="-102.95025"
   inkscape:export-xdpi="600.03387"
   inkscape:export-ydpi="600.03387"><tspan
     id="tspan38"
     sodipodi:role="line"
     y="-102.95025"
     x="361.74252 366.14252 368.83853 373.23853 377.63852 382.23053 386.32654 388.11853 392.51852">grondvlak</tspan></text>

<path
   inkscape:connector-curvature="0"
   id="path44"
   style="fill:none;stroke:#000000;stroke-width:0.75000002;stroke-linecap:round;stroke-linejoin:round;stroke-miterlimit:10;stroke-dasharray:none;stroke-opacity:1"
   d="m 351.2,173.8 v 0 c 10.4,0 19.3,-3.3 28.3,-10.6 9.1,-7.3 15.6,-16.4 20.8,-29 5.2,-12.7 7.6,-25.1 7.6,-39.8"
   inkscape:export-xdpi="600.03387"
   inkscape:export-ydpi="600.03387" /><path
   inkscape:connector-curvature="0"
   id="path48"
   style="fill:none;stroke:#000000;stroke-width:0.75000002;stroke-linecap:round;stroke-linejoin:round;stroke-miterlimit:10;stroke-dasharray:none;stroke-opacity:1"
   d="m 351.2,15.1 v 0 c 0.5,0 0.9,0 1.4,0 10.4,0.1 19.2,3.6 28.1,11.1 9,7.5 15.3,16.7 20.3,29.4 4.9,12.5 7,24.6 6.9,38.9"
   inkscape:export-xdpi="600.03387"
   inkscape:export-ydpi="600.03387" /><path
   inkscape:connector-curvature="0"
   id="path52"
   style="fill:none;stroke:#000000;stroke-width:0.75000002;stroke-linecap:round;stroke-linejoin:round;stroke-miterlimit:10;stroke-dasharray:none;stroke-opacity:1"
   d="M 320,162.6 V 23.5"
   inkscape:export-xdpi="600.03387"
   inkscape:export-ydpi="600.03387" /><path
   d="m 320,173.8 -3.9,-11.7 h 7.8 z"
   style="fill:#000000;fill-opacity:1;fill-rule:evenodd;stroke:none"
   id="path54"
   inkscape:connector-curvature="0"
   inkscape:export-xdpi="600.03387"
   inkscape:export-ydpi="600.03387" /><path
   d="m 320,12.3 3.9,11.7 h -7.8 z"
   style="fill:#000000;fill-opacity:1;fill-rule:evenodd;stroke:none"
   id="path56"
   inkscape:connector-curvature="0"
   inkscape:export-xdpi="600.03387"
   inkscape:export-ydpi="600.03387" />
<g
   id="g31"
   transform="translate(16.5,-18)"><path
     inkscape:export-ydpi="600.03387"
     inkscape:export-xdpi="600.03387"
     d="m 307.7,112.7 h 7.7"
     style="fill:none;stroke:#000000;stroke-width:0.49844;stroke-linecap:round;stroke-linejoin:miter;stroke-miterlimit:1;stroke-dasharray:none;stroke-opacity:1"
     id="path60"
     inkscape:connector-curvature="0" /><text
     inkscape:export-ydpi="600.03387"
     inkscape:export-xdpi="600.03387"
     y="-100.4"
     x="308.60001"
     transform="scale(1,-1)"
     style="font-variant:normal;font-weight:normal;font-size:12px;font-family:'Nimbus Roman';-inkscape-font-specification:NimbusRomanRegular;writing-mode:lr-tb;fill:#000000;fill-opacity:1;fill-rule:nonzero;stroke:none"
     id="text66"><tspan
       x="308.60001"
       y="-100.4"
       id="tspan64">2</tspan></text>
<text
     inkscape:export-ydpi="600.03387"
     inkscape:export-xdpi="600.03387"
     y="-117.1"
     x="308.39999"
     transform="scale(1,-1)"
     style="font-variant:normal;font-weight:normal;font-size:12px;font-family:'DejaVu Sans';-inkscape-font-specification:DejaVuSans;writing-mode:lr-tb;fill:#000000;fill-opacity:1;fill-rule:nonzero;stroke:none"
     id="text72"><tspan
       x="308.39999"
       y="-117.1"
       id="tspan70">λ</tspan></text>
</g>
<path
   inkscape:connector-curvature="0"
   id="path76"
   style="fill:none;stroke:#000000;stroke-width:0.75000002;stroke-linecap:round;stroke-linejoin:round;stroke-miterlimit:10;stroke-dasharray:none;stroke-opacity:1"
   d="m 255.6,71.4 39.6,43.2"
   inkscape:export-xdpi="600.03387"
   inkscape:export-ydpi="600.03387" /></g></svg>