Begin_Block  Header

  Mode  ASCII
  File_Name  Z:\ADS\ExEM_prj\emds_dsn\PatchAntenna2x2_v1/geolinks/emds4ads/EMDS4ADS_preview/EMDS4ADS_preview.geo
  Version  1.00

End_Block  Header

Begin_Block Data

  UNITS
  mm

  VERTEX 80
  V 0  4.8319999999999999e+002 -2.2800000000000000e+002  0.0000000000000000e+000
  V 1  0.0000000000000000e+000 -2.2800000000000000e+002  0.0000000000000000e+000
  V 2  0.0000000000000000e+000  2.2800000000000000e+002  0.0000000000000000e+000
  V 3  4.8319999999999999e+002  2.2800000000000000e+002  0.0000000000000000e+000
  V 4  4.8319999999999999e+002 -2.2800000000000000e+002  6.0000000000000000e+000
  V 5  4.8319999999999999e+002  2.2800000000000000e+002  6.0000000000000000e+000
  V 6  0.0000000000000000e+000  2.2800000000000000e+002  6.0000000000000000e+000
  V 7  0.0000000000000000e+000 -2.2800000000000000e+002  6.0000000000000000e+000
  V 8 -2.4159999999999999e+002 -4.5600000000000000e+002 -3.0000000000000000e+000
  V 9  7.2479999999999995e+002 -4.5600000000000000e+002 -3.0000000000000000e+000
  V 10  7.2479999999999995e+002  4.5600000000000000e+002 -3.0000000000000000e+000
  V 11 -2.4159999999999999e+002  4.5600000000000000e+002 -3.0000000000000000e+000
  V 12 -2.4159999999999999e+002 -4.5600000000000000e+002  9.0000000000000000e+000
  V 13 -2.4159999999999999e+002  4.5600000000000000e+002  9.0000000000000000e+000
  V 14  7.2479999999999995e+002  4.5600000000000000e+002  9.0000000000000000e+000
  V 15  7.2479999999999995e+002 -4.5600000000000000e+002  9.0000000000000000e+000
  V 16  3.5161000000000001e+002  2.2500000000000000e+002  1.5000000000000000e+000
  V 17  3.5161000000000001e+002  7.5000000000000000e+001  1.5000000000000000e+000
  V 18  4.3319999999999999e+002  7.5000000000000000e+001  1.5000000000000000e+000
  V 19  4.3319999999999999e+002  1.4972999999999999e+002  1.5000000000000000e+000
  V 20  4.8319999999999999e+002  1.4972999999999999e+002  1.5000000000000000e+000
  V 21  4.8319999999999999e+002  1.5027000000000001e+002  1.5000000000000000e+000
  V 22  4.3319999999999999e+002  1.5027000000000001e+002  1.5000000000000000e+000
  V 23  4.3319999999999999e+002  2.2500000000000000e+002  1.5000000000000000e+000
  V 24  3.5161000000000001e+002 -7.5000000000000000e+001  1.5000000000000000e+000
  V 25  3.5161000000000001e+002 -2.2500000000000000e+002  1.5000000000000000e+000
  V 26  4.3319999999999999e+002 -2.2500000000000000e+002  1.5000000000000000e+000
  V 27  4.3319999999999999e+002 -1.5027000000000001e+002  1.5000000000000000e+000
  V 28  4.8319999999999999e+002 -1.5027000000000001e+002  1.5000000000000000e+000
  V 29  4.8319999999999999e+002 -1.4972999999999999e+002  1.5000000000000000e+000
  V 30  4.3319999999999999e+002 -1.4972999999999999e+002  1.5000000000000000e+000
  V 31  4.3319999999999999e+002 -7.5000000000000000e+001  1.5000000000000000e+000
  V 32  5.0000000000000000e+001 -7.5000000000000000e+001  1.5000000000000000e+000
  V 33  5.0000000000000000e+001 -1.4972999999999999e+002  1.5000000000000000e+000
  V 34  0.0000000000000000e+000 -1.4972999999999999e+002  1.5000000000000000e+000
  V 35  0.0000000000000000e+000 -1.5027000000000001e+002  1.5000000000000000e+000
  V 36  5.0000000000000000e+001 -1.5027000000000001e+002  1.5000000000000000e+000
  V 37  5.0000000000000000e+001 -2.2500000000000000e+002  1.5000000000000000e+000
  V 38  1.3158999999999997e+002 -2.2500000000000000e+002  1.5000000000000000e+000
  V 39  1.3158999999999997e+002 -7.5000000000000000e+001  1.5000000000000000e+000
  V 40  5.0000000000000000e+001  2.2500000000000000e+002  1.5000000000000000e+000
  V 41  5.0000000000000000e+001  1.5027000000000001e+002  1.5000000000000000e+000
  V 42  0.0000000000000000e+000  1.5027000000000001e+002  1.5000000000000000e+000
  V 43  0.0000000000000000e+000  1.4972999999999999e+002  1.5000000000000000e+000
  V 44  5.0000000000000000e+001  1.4972999999999999e+002  1.5000000000000000e+000
  V 45  5.0000000000000000e+001  7.5000000000000000e+001  1.5000000000000000e+000
  V 46  1.3158999999999997e+002  7.5000000000000000e+001  1.5000000000000000e+000
  V 47  1.3158999999999997e+002  2.2500000000000000e+002  1.5000000000000000e+000
  V 48  4.8319999999999999e+002 -2.2800000000000000e+002  0.0000000000000000e+000
  V 49  0.0000000000000000e+000 -2.2800000000000000e+002  0.0000000000000000e+000
  V 50  0.0000000000000000e+000  2.2800000000000000e+002  0.0000000000000000e+000
  V 51  4.8319999999999999e+002  2.2800000000000000e+002  0.0000000000000000e+000
  V 52  4.8319999999999999e+002 -2.2800000000000000e+002  1.5000000000000000e+000
  V 53  4.8319999999999999e+002  2.2800000000000000e+002  1.5000000000000000e+000
  V 54  0.0000000000000000e+000  2.2800000000000000e+002  1.5000000000000000e+000
  V 55  0.0000000000000000e+000 -2.2800000000000000e+002  1.5000000000000000e+000
  V 56  4.8319999999999999e+002 -2.2800000000000000e+002  1.5000000000000000e+000
  V 57  0.0000000000000000e+000 -2.2800000000000000e+002  1.5000000000000000e+000
  V 58  0.0000000000000000e+000  2.2800000000000000e+002  1.5000000000000000e+000
  V 59  4.8319999999999999e+002  2.2800000000000000e+002  1.5000000000000000e+000
  V 60  4.8319999999999999e+002 -2.2800000000000000e+002  6.0000000000000000e+000
  V 61  4.8319999999999999e+002  2.2800000000000000e+002  6.0000000000000000e+000
  V 62  0.0000000000000000e+000  2.2800000000000000e+002  6.0000000000000000e+000
  V 63  0.0000000000000000e+000 -2.2800000000000000e+002  6.0000000000000000e+000
  V 64  0.0000000000000000e+000  1.4811000000000001e+002  0.0000000000000000e+000
  V 65  0.0000000000000000e+000  1.5188999999999999e+002  0.0000000000000000e+000
  V 66  0.0000000000000000e+000  1.5188999999999999e+002  6.0000000000000000e+000
  V 67  0.0000000000000000e+000  1.4811000000000001e+002  6.0000000000000000e+000
  V 68  0.0000000000000000e+000 -1.5188999999999999e+002  0.0000000000000000e+000
  V 69  0.0000000000000000e+000 -1.4811000000000001e+002  0.0000000000000000e+000
  V 70  0.0000000000000000e+000 -1.4811000000000001e+002  6.0000000000000000e+000
  V 71  0.0000000000000000e+000 -1.5188999999999999e+002  6.0000000000000000e+000
  V 72  4.8319999999999999e+002  1.5188999999999999e+002  0.0000000000000000e+000
  V 73  4.8319999999999999e+002  1.4811000000000001e+002  0.0000000000000000e+000
  V 74  4.8319999999999999e+002  1.4811000000000001e+002  6.0000000000000000e+000
  V 75  4.8319999999999999e+002  1.5188999999999999e+002  6.0000000000000000e+000
  V 76  4.8319999999999999e+002 -1.4811000000000001e+002  0.0000000000000000e+000
  V 77  4.8319999999999999e+002 -1.5188999999999999e+002  0.0000000000000000e+000
  V 78  4.8319999999999999e+002 -1.5188999999999999e+002  6.0000000000000000e+000
  V 79  4.8319999999999999e+002 -1.4811000000000001e+002  6.0000000000000000e+000
  EDGE 96
  E 0        0        1
  E 1        1        2
  E 2        2        3
  E 3        3        0
  E 4        4        5
  E 5        5        6
  E 6        6        7
  E 7        7        4
  E 8        4        0
  E 9        7        1
  E 10        6        2
  E 11        5        3
  E 12        8        9
  E 13        9       10
  E 14       10       11
  E 15       11        8
  E 16       12       13
  E 17       13       14
  E 18       14       15
  E 19       15       12
  E 20       12        8
  E 21       15        9
  E 22       14       10
  E 23       13       11
  E 24       16       17
  E 25       17       18
  E 26       18       19
  E 27       19       20
  E 28       20       21
  E 29       21       22
  E 30       22       23
  E 31       23       16
  E 32       24       25
  E 33       25       26
  E 34       26       27
  E 35       27       28
  E 36       28       29
  E 37       29       30
  E 38       30       31
  E 39       31       24
  E 40       32       33
  E 41       33       34
  E 42       34       35
  E 43       35       36
  E 44       36       37
  E 45       37       38
  E 46       38       39
  E 47       39       32
  E 48       40       41
  E 49       41       42
  E 50       42       43
  E 51       43       44
  E 52       44       45
  E 53       45       46
  E 54       46       47
  E 55       47       40
  E 56       48       49
  E 57       49       50
  E 58       50       51
  E 59       51       48
  E 60       52       53
  E 61       53       54
  E 62       54       55
  E 63       55       52
  E 64       52       48
  E 65       55       49
  E 66       54       50
  E 67       53       51
  E 68       56       57
  E 69       57       58
  E 70       58       59
  E 71       59       56
  E 72       60       61
  E 73       61       62
  E 74       62       63
  E 75       63       60
  E 76       60       56
  E 77       63       57
  E 78       62       58
  E 79       61       59
  E 80       64       65
  E 81       65       66
  E 82       66       67
  E 83       67       64
  E 84       68       69
  E 85       69       70
  E 86       70       71
  E 87       71       68
  E 88       72       73
  E 89       73       74
  E 90       74       75
  E 91       75       72
  E 92       76       77
  E 93       77       78
  E 94       78       79
  E 95       79       76
  LOOP 32
  L 0 4
    3
    2
    1
    0
  L 1 4
    7
    6
    5
    4
  L 2 4
    0
    9
    7
    8
  L 3 4
    1
    10
    6
    9
  L 4 4
    2
    11
    5
    10
  L 5 4
    3
    8
    4
    11
  L 6 4
    12
    13
    14
    15
  L 7 4
    16
    17
    18
    19
  L 8 4
    20
    19
    21
    12
  L 9 4
    21
    18
    22
    13
  L 10 4
    22
    17
    23
    14
  L 11 4
    23
    16
    20
    15
  L 12 8
    24
    25
    26
    27
    28
    29
    30
    31
  L 13 8
    32
    33
    34
    35
    36
    37
    38
    39
  L 14 8
    40
    41
    42
    43
    44
    45
    46
    47
  L 15 8
    48
    49
    50
    51
    52
    53
    54
    55
  L 16 4
    56
    57
    58
    59
  L 17 4
    60
    61
    62
    63
  L 18 4
    64
    63
    65
    56
  L 19 4
    65
    62
    66
    57
  L 20 4
    66
    61
    67
    58
  L 21 4
    67
    60
    64
    59
  L 22 4
    68
    69
    70
    71
  L 23 4
    72
    73
    74
    75
  L 24 4
    76
    75
    77
    68
  L 25 4
    77
    74
    78
    69
  L 26 4
    78
    73
    79
    70
  L 27 4
    79
    72
    76
    71
  L 28 4
    80
    81
    82
    83
  L 29 4
    84
    85
    86
    87
  L 30 4
    88
    89
    90
    91
  L 31 4
    92
    93
    94
    95
  FACE 32
  F 0 1    0
  F 1 1    1
  F 2 1    2
  F 3 1    3
  F 4 1    4
  F 5 1    5
  F 6 1    6
  F 7 1    7
  F 8 1    8
  F 9 1    9
  F 10 1    10
  F 11 1    11
  F 12 1    12
  F 13 1    13
  F 14 1    14
  F 15 1    15
  F 16 1    16
  F 17 1    17
  F 18 1    18
  F 19 1    19
  F 20 1    20
  F 21 1    21
  F 22 1    22
  F 23 1    23
  F 24 1    24
  F 25 1    25
  F 26 1    26
  F 27 1    27
  F 28 1    28
  F 29 1    29
  F 30 1    30
  F 31 1    31

  REGION 8
  R 0 PORT_1 1    28
  R 1 PORT_2 1    29
  R 2 PORT_3 1    30
  R 3 PORT_4 1    31
  R 4 cond_poly_0 1    12
  R 5 cond_poly_1 1    13
  R 6 cond_poly_2 1    14
  R 7 cond_poly_3 1    15

  SOLID 3
  S 0 _OUTER_ 12    0  1  2  3  4  5  6  7  8  9  10  11
  S 1 RO4003_obj1 6    16  17  18  19  20  21
  S 2 FreeSpace_obj2 6    22  23  24  25  26  27

End_Block Data
