Begin_Block  Header

  Mode  ASCII
  File_Name  Z:\ADS\ExEM_prj\emds_dsn\IdistributionMatchedTL/geolinks/emds4ads/EMDS4ADS_preview/EMDS4ADS_preview.geo
  Version  1.00

End_Block  Header

Begin_Block Data

  UNITS
  mm

  VERTEX 44
  V 0  2.7539999999999998e+002 -4.7300000000000004e+000  0.0000000000000000e+000
  V 1  0.0000000000000000e+000 -4.7300000000000004e+000  0.0000000000000000e+000
  V 2  0.0000000000000000e+000  4.7300000000000004e+000  0.0000000000000000e+000
  V 3  2.7539999999999998e+002  4.7300000000000004e+000  0.0000000000000000e+000
  V 4  2.7539999999999998e+002 -4.7300000000000004e+000  6.0000000000000000e+000
  V 5  2.7539999999999998e+002  4.7300000000000004e+000  6.0000000000000000e+000
  V 6  0.0000000000000000e+000  4.7300000000000004e+000  6.0000000000000000e+000
  V 7  0.0000000000000000e+000 -4.7300000000000004e+000  6.0000000000000000e+000
  V 8 -1.3769999999999999e+002 -9.4600000000000009e+000 -3.0000000000000000e+000
  V 9  4.1309999999999997e+002 -9.4600000000000009e+000 -3.0000000000000000e+000
  V 10  4.1309999999999997e+002  9.4600000000000009e+000 -3.0000000000000000e+000
  V 11 -1.3769999999999999e+002  9.4600000000000009e+000 -3.0000000000000000e+000
  V 12 -1.3769999999999999e+002 -9.4600000000000009e+000  9.0000000000000000e+000
  V 13 -1.3769999999999999e+002  9.4600000000000009e+000  9.0000000000000000e+000
  V 14  4.1309999999999997e+002  9.4600000000000009e+000  9.0000000000000000e+000
  V 15  4.1309999999999997e+002 -9.4600000000000009e+000  9.0000000000000000e+000
  V 16  0.0000000000000000e+000  1.7300000000000000e+000  1.5000000000000000e+000
  V 17  0.0000000000000000e+000 -1.7300000000000000e+000  1.5000000000000000e+000
  V 18  2.7539999999999998e+002 -1.7300000000000000e+000  1.5000000000000000e+000
  V 19  2.7539999999999998e+002  1.7300000000000000e+000  1.5000000000000000e+000
  V 20  2.7539999999999998e+002 -4.7300000000000004e+000  0.0000000000000000e+000
  V 21  0.0000000000000000e+000 -4.7300000000000004e+000  0.0000000000000000e+000
  V 22  0.0000000000000000e+000  4.7300000000000004e+000  0.0000000000000000e+000
  V 23  2.7539999999999998e+002  4.7300000000000004e+000  0.0000000000000000e+000
  V 24  2.7539999999999998e+002 -4.7300000000000004e+000  1.5000000000000000e+000
  V 25  2.7539999999999998e+002  4.7300000000000004e+000  1.5000000000000000e+000
  V 26  0.0000000000000000e+000  4.7300000000000004e+000  1.5000000000000000e+000
  V 27  0.0000000000000000e+000 -4.7300000000000004e+000  1.5000000000000000e+000
  V 28  2.7539999999999998e+002 -4.7300000000000004e+000  1.5000000000000000e+000
  V 29  0.0000000000000000e+000 -4.7300000000000004e+000  1.5000000000000000e+000
  V 30  0.0000000000000000e+000  4.7300000000000004e+000  1.5000000000000000e+000
  V 31  2.7539999999999998e+002  4.7300000000000004e+000  1.5000000000000000e+000
  V 32  2.7539999999999998e+002 -4.7300000000000004e+000  6.0000000000000000e+000
  V 33  2.7539999999999998e+002  4.7300000000000004e+000  6.0000000000000000e+000
  V 34  0.0000000000000000e+000  4.7300000000000004e+000  6.0000000000000000e+000
  V 35  0.0000000000000000e+000 -4.7300000000000004e+000  6.0000000000000000e+000
  V 36  0.0000000000000000e+000 -4.7300000000000004e+000  0.0000000000000000e+000
  V 37  0.0000000000000000e+000  4.7300000000000004e+000  0.0000000000000000e+000
  V 38  0.0000000000000000e+000  4.7300000000000004e+000  6.0000000000000000e+000
  V 39  0.0000000000000000e+000 -4.7300000000000004e+000  6.0000000000000000e+000
  V 40  2.7539999999999998e+002  4.7300000000000004e+000  0.0000000000000000e+000
  V 41  2.7539999999999998e+002 -4.7300000000000004e+000  0.0000000000000000e+000
  V 42  2.7539999999999998e+002 -4.7300000000000004e+000  6.0000000000000000e+000
  V 43  2.7539999999999998e+002  4.7300000000000004e+000  6.0000000000000000e+000
  EDGE 60
  E 0        0        1
  E 1        1        2
  E 2        2        3
  E 3        3        0
  E 4        4        5
  E 5        5        6
  E 6        6        7
  E 7        7        4
  E 8        4        0
  E 9        7        1
  E 10        6        2
  E 11        5        3
  E 12        8        9
  E 13        9       10
  E 14       10       11
  E 15       11        8
  E 16       12       13
  E 17       13       14
  E 18       14       15
  E 19       15       12
  E 20       12        8
  E 21       15        9
  E 22       14       10
  E 23       13       11
  E 24       16       17
  E 25       17       18
  E 26       18       19
  E 27       19       16
  E 28       20       21
  E 29       21       22
  E 30       22       23
  E 31       23       20
  E 32       24       25
  E 33       25       26
  E 34       26       27
  E 35       27       24
  E 36       24       20
  E 37       27       21
  E 38       26       22
  E 39       25       23
  E 40       28       29
  E 41       29       30
  E 42       30       31
  E 43       31       28
  E 44       32       33
  E 45       33       34
  E 46       34       35
  E 47       35       32
  E 48       32       28
  E 49       35       29
  E 50       34       30
  E 51       33       31
  E 52       36       37
  E 53       37       38
  E 54       38       39
  E 55       39       36
  E 56       40       41
  E 57       41       42
  E 58       42       43
  E 59       43       40
  LOOP 27
  L 0 4
    3
    2
    1
    0
  L 1 4
    7
    6
    5
    4
  L 2 4
    0
    9
    7
    8
  L 3 4
    1
    10
    6
    9
  L 4 4
    2
    11
    5
    10
  L 5 4
    3
    8
    4
    11
  L 6 4
    12
    13
    14
    15
  L 7 4
    16
    17
    18
    19
  L 8 4
    20
    19
    21
    12
  L 9 4
    21
    18
    22
    13
  L 10 4
    22
    17
    23
    14
  L 11 4
    23
    16
    20
    15
  L 12 4
    24
    25
    26
    27
  L 13 4
    28
    29
    30
    31
  L 14 4
    32
    33
    34
    35
  L 15 4
    36
    35
    37
    28
  L 16 4
    37
    34
    38
    29
  L 17 4
    38
    33
    39
    30
  L 18 4
    39
    32
    36
    31
  L 19 4
    40
    41
    42
    43
  L 20 4
    44
    45
    46
    47
  L 21 4
    48
    47
    49
    40
  L 22 4
    49
    46
    50
    41
  L 23 4
    50
    45
    51
    42
  L 24 4
    51
    44
    48
    43
  L 25 4
    52
    53
    54
    55
  L 26 4
    56
    57
    58
    59
  FACE 27
  F 0 1    0
  F 1 1    1
  F 2 1    2
  F 3 1    3
  F 4 1    4
  F 5 1    5
  F 6 1    6
  F 7 1    7
  F 8 1    8
  F 9 1    9
  F 10 1    10
  F 11 1    11
  F 12 1    12
  F 13 1    13
  F 14 1    14
  F 15 1    15
  F 16 1    16
  F 17 1    17
  F 18 1    18
  F 19 1    19
  F 20 1    20
  F 21 1    21
  F 22 1    22
  F 23 1    23
  F 24 1    24
  F 25 1    25
  F 26 1    26

  REGION 3
  R 0 PORT_1 1    25
  R 1 PORT_2 1    26
  R 2 cond_poly_0 1    12

  SOLID 3
  S 0 _OUTER_ 12    0  1  2  3  4  5  6  7  8  9  10  11
  S 1 RO4003_1_obj1 6    13  14  15  16  17  18
  S 2 Air_obj2 6    19  20  21  22  23  24

End_Block Data
