beg_ckt proj :
beg_layout :
  Units: m;
  EgsUnits: mm;
  Resolution: 8e-007 units;
  EgsResolution: 0.0002 egsunits;
end_layout;
beg_momMdl :
Mesh: 
  Freq: 1; 
  Cd: 0.00366812; 
  CpWl: 50; 
  Extraction: 1; 
  Expansion: 0; 
  ShortVias: 0; 
;
NdefIA 60: 
  p 1: 0.00350415 0.001384 0.0015,
  p 2: 0.00700831 0.001384 0.0015,
  p 3: 0.0105125 0.001384 0.0015,
  p 4: 0.0140166 0.001384 0.0015,
  p 5: 0.0175208 0.001384 0.0015,
  p 6: 0.0210249 0.001384 0.0015,
  p 7: 0.0245291 0.001384 0.0015,
  p 8: 0.0280332 0.001384 0.0015,
  p 9: 0.0315374 0.001384 0.0015,
  p 10: 0.0350415 0.001384 0.0015,
  p 11: 0.0385457 0.001384 0.0015,
  p 12: 0.0420498 0.001384 0.0015,
  p 13: 0.045554 0.001384 0.0015,
  p 14: 0.045554 0.00173 0.0015,
  p 15: 0.0420498 0.00173 0.0015,
  p 16: 0.0385457 0.00173 0.0015,
  p 17: 0.0350415 0.00173 0.0015,
  p 18: 0.0315374 0.00173 0.0015,
  p 19: 0.0280332 0.00173 0.0015,
  p 20: 0.0245291 0.00173 0.0015,
  p 21: 0.0210249 0.00173 0.0015,
  p 22: 0.0175208 0.00173 0.0015,
  p 23: 0.0140166 0.00173 0.0015,
  p 24: 0.0105125 0.00173 0.0015,
  p 25: 0.00700831 0.00173 0.0015,
  p 26: 0.00350415 0.00173 0.0015,
  p 27: 0 0.00173 0.0015,
  p 28: 0 0.001384 0.0015,
  p 29: 0.00350415 -0.00173 0.0015,
  p 30: 0.00700831 -0.00173 0.0015,
  p 31: 0.0105125 -0.00173 0.0015,
  p 32: 0.0140166 -0.00173 0.0015,
  p 33: 0.0175208 -0.00173 0.0015,
  p 34: 0.0210249 -0.00173 0.0015,
  p 35: 0.0245291 -0.00173 0.0015,
  p 36: 0.0280332 -0.00173 0.0015,
  p 37: 0.0315374 -0.00173 0.0015,
  p 38: 0.0350415 -0.00173 0.0015,
  p 39: 0.0385457 -0.00173 0.0015,
  p 40: 0.0420498 -0.00173 0.0015,
  p 41: 0.045554 -0.00173 0.0015,
  p 42: 0.045554 -0.001384 0.0015,
  p 43: 0.0420498 -0.001384 0.0015,
  p 44: 0.0385457 -0.001384 0.0015,
  p 45: 0.0350415 -0.001384 0.0015,
  p 46: 0.0315374 -0.001384 0.0015,
  p 47: 0.0280332 -0.001384 0.0015,
  p 48: 0.0245291 -0.001384 0.0015,
  p 49: 0.0210249 -0.001384 0.0015,
  p 50: 0.0175208 -0.001384 0.0015,
  p 51: 0.0140166 -0.001384 0.0015,
  p 52: 0.0105125 -0.001384 0.0015,
  p 53: 0.00700831 -0.001384 0.0015,
  p 54: 0.00350415 -0.001384 0.0015,
  p 55: 0 -0.001384 0.0015,
  p 56: 0 -0.00173 0.0015,
  p 57: 0.0459 -0.001384 0.0015,
  p 58: 0.0459 0.001384 0.0015,
  p 59: 0.0459 -0.00173 0.0015,
  p 60: 0.0459 0.00173 0.0015;
EdefIA 101: 
  s 1: 28 27, s 2: 1 26, s 3: 2 25, s 4: 3 24, s 5: 4 23,
  s 6: 5 22, s 7: 6 21, s 8: 7 20, s 9: 8 19, s 10: 9 18,
  s 11: 10 17, s 12: 11 16, s 13: 12 15, s 14: 13 14, s 15: 1 28,
  s 16: 2 1, s 17: 3 2, s 18: 4 3, s 19: 5 4, s 20: 6 5,
  s 21: 7 6, s 22: 8 7, s 23: 9 8, s 24: 10 9, s 25: 11 10,
  s 26: 12 11, s 27: 13 12, s 28: 26 27, s 29: 25 26, s 30: 24 25,
  s 31: 23 24, s 32: 22 23, s 33: 21 22, s 34: 20 21, s 35: 19 20,
  s 36: 18 19, s 37: 17 18, s 38: 16 17, s 39: 15 16, s 40: 14 15,
  s 41: 56 55, s 42: 29 54, s 43: 30 53, s 44: 31 52, s 45: 32 51,
  s 46: 33 50, s 47: 34 49, s 48: 35 48, s 49: 36 47, s 50: 37 46,
  s 51: 38 45, s 52: 39 44, s 53: 40 43, s 54: 41 42, s 55: 29 56,
  s 56: 30 29, s 57: 31 30, s 58: 32 31, s 59: 33 32, s 60: 34 33,
  s 61: 35 34, s 62: 36 35, s 63: 37 36, s 64: 38 37, s 65: 39 38,
  s 66: 40 39, s 67: 41 40, s 68: 54 55, s 69: 53 54, s 70: 52 53,
  s 71: 51 52, s 72: 50 51, s 73: 49 50, s 74: 48 49, s 75: 47 48,
  s 76: 46 47, s 77: 45 46, s 78: 44 45, s 79: 43 44, s 80: 42 43,
  s 81: 42 13, s 82: 57 58, s 83: 57 42, s 84: 58 13, s 85: 55 28,
  s 86: 54 1, s 87: 53 2, s 88: 52 3, s 89: 51 4, s 90: 50 5,
  s 91: 49 6, s 92: 48 7, s 93: 47 8, s 94: 46 9, s 95: 45 10,
  s 96: 44 11, s 97: 43 12, s 98: 59 57, s 99: 59 41, s 100: 58 60,
  s 101: 60 14;
CdefIA 42: 
  c 1: -1 -15 2 28, c 2: -2 -16 3 29, c 3: -3 -17 4 30,
  c 4: -4 -18 5 31, c 5: -5 -19 6 32, c 6: -6 -20 7 33,
  c 7: -7 -21 8 34, c 8: -8 -22 9 35, c 9: -9 -23 10 36,
  c 10: -10 -24 11 37, c 11: -11 -25 12 38, c 12: -12 -26 13 39,
  c 13: -13 -27 14 40, c 14: -41 -55 42 68, c 15: -42 -56 43 69,
  c 16: -43 -57 44 70, c 17: -44 -58 45 71, c 18: -45 -59 46 72,
  c 19: -46 -60 47 73, c 20: -47 -61 48 74, c 21: -48 -62 49 75,
  c 22: -49 -63 50 76, c 23: -50 -64 51 77, c 24: -51 -65 52 78,
  c 25: -52 -66 53 79, c 26: -53 -67 54 80, c 27: -81 -83 82 84,
  c 28: -85 -68 86 15, c 29: -86 -69 87 16, c 30: -87 -70 88 17,
  c 31: -88 -71 89 18, c 32: -89 -72 90 19, c 33: -90 -73 91 20,
  c 34: -91 -74 92 21, c 35: -92 -75 93 22, c 36: -93 -76 94 23,
  c 37: -94 -77 95 24, c 38: -95 -78 96 25, c 39: -96 -79 97 26,
  c 40: -97 -80 81 27, c 41: -54 -99 98 83, c 42: -14 -84 100 101;
beg_Xinfo :
beg_layer /1:
  Mask: 1;
  Type: metal;
  Level: 0;
  Plane: z = 0.0015;
  Fill: condthickness 6e+007 3.5e-005 M precedence 1;
  CrefRA 42 { 
  1 28 14 15 16 17 18 19 20 21
  22 23 24 25 26 41 27 40 39 38
  37 36 35 34 33 32 31 30 29 2
  3 4 5 6 7 8 9 10 11 12
  13 42 }
  RGrid 0.003504153846,0.000346 0 1: 
  0,0.001384 13,1 13:
    0,0 c 1, 1,0 c 2, 2,0 c 3, 3,0 c 4, 4,0 c 5, 
    5,0 c 6, 6,0 c 7, 7,0 c 8, 8,0 c 9, 9,0 c 10, 
    10,0 c 11, 11,0 c 12, 12,0 c 13;
  RGrid 0.003504153846,0.000346 0 1: 
  0,-0.00173 13,1 13:
    0,0 c 14, 1,0 c 15, 2,0 c 16, 3,0 c 17, 4,0 c 18, 
    5,0 c 19, 6,0 c 20, 7,0 c 21, 8,0 c 22, 9,0 c 23, 
    10,0 c 24, 11,0 c 25, 12,0 c 26;
  RGrid 0.003504153846,0.002768 0 1: 
  0,-0.001384 13,1 13:
    0,0 c 28, 1,0 c 29, 2,0 c 30, 3,0 c 31, 4,0 c 32, 
    5,0 c 33, 6,0 c 34, 7,0 c 35, 8,0 c 36, 9,0 c 37, 
    10,0 c 38, 11,0 c 39, 12,0 c 40;
end_layer /1;
end_Xinfo;
EdgeMesh: 
  ErefRA 28 { 
  15 16 17 18 19 20 21 22 23 24
  25 26 27 68 69 70 71 72 73 74
  75 76 77 78 79 80 81 86 };
Overlap: 
  ErefRA 34 { 
  1 41 85 28 29 30 31 32 33 34
  35 36 37 38 39 40 55 56 57 58
  59 60 61 62 63 64 65 66 67 82
  98 99 100 101 };
BdefIA 70: 
  b 1: e 0 c 1;
  b 2: -1 e 2 c 1, e 0 c 2;
  b 3: -1 e 2 c 2, e 0 c 3;
  b 4: -1 e 2 c 3, e 0 c 4;
  b 5: -1 e 2 c 4, e 0 c 5;
  b 6: -1 e 2 c 5, e 0 c 6;
  b 7: -1 e 2 c 6, e 0 c 7;
  b 8: -1 e 2 c 7, e 0 c 8;
  b 9: -1 e 2 c 8, e 0 c 9;
  b 10: -1 e 2 c 9, e 0 c 10;
  b 11: -1 e 2 c 10, e 0 c 11;
  b 12: -1 e 2 c 11, e 0 c 12;
  b 13: -1 e 2 c 12, e 0 c 13;
  b 14: -1 e 2 c 13, e 0 c 42;
  b 15: -1 e 3 c 28, e 1 c 1;
  b 16: -1 e 3 c 29, e 1 c 2;
  b 17: -1 e 3 c 30, e 1 c 3;
  b 18: -1 e 3 c 31, e 1 c 4;
  b 19: -1 e 3 c 32, e 1 c 5;
  b 20: -1 e 3 c 33, e 1 c 6;
  b 21: -1 e 3 c 34, e 1 c 7;
  b 22: -1 e 3 c 35, e 1 c 8;
  b 23: -1 e 3 c 36, e 1 c 9;
  b 24: -1 e 3 c 37, e 1 c 10;
  b 25: -1 e 3 c 38, e 1 c 11;
  b 26: -1 e 3 c 39, e 1 c 12;
  b 27: -1 e 3 c 40, e 1 c 13;
  b 28: e 0 c 14;
  b 29: -1 e 2 c 14, e 0 c 15;
  b 30: -1 e 2 c 15, e 0 c 16;
  b 31: -1 e 2 c 16, e 0 c 17;
  b 32: -1 e 2 c 17, e 0 c 18;
  b 33: -1 e 2 c 18, e 0 c 19;
  b 34: -1 e 2 c 19, e 0 c 20;
  b 35: -1 e 2 c 20, e 0 c 21;
  b 36: -1 e 2 c 21, e 0 c 22;
  b 37: -1 e 2 c 22, e 0 c 23;
  b 38: -1 e 2 c 23, e 0 c 24;
  b 39: -1 e 2 c 24, e 0 c 25;
  b 40: -1 e 2 c 25, e 0 c 26;
  b 41: -1 e 2 c 26, e 0 c 41;
  b 42: -1 e 3 c 14, e 1 c 28;
  b 43: -1 e 3 c 15, e 1 c 29;
  b 44: -1 e 3 c 16, e 1 c 30;
  b 45: -1 e 3 c 17, e 1 c 31;
  b 46: -1 e 3 c 18, e 1 c 32;
  b 47: -1 e 3 c 19, e 1 c 33;
  b 48: -1 e 3 c 20, e 1 c 34;
  b 49: -1 e 3 c 21, e 1 c 35;
  b 50: -1 e 3 c 22, e 1 c 36;
  b 51: -1 e 3 c 23, e 1 c 37;
  b 52: -1 e 3 c 24, e 1 c 38;
  b 53: -1 e 3 c 25, e 1 c 39;
  b 54: -1 e 3 c 26, e 1 c 40;
  b 55: -1 e 2 c 40, e 0 c 27;
  b 56: -1 e 3 c 41, e 1 c 27;
  b 57: -1 e 3 c 27, e 1 c 42;
  b 58: e 0 c 28;
  b 59: -1 e 2 c 28, e 0 c 29;
  b 60: -1 e 2 c 29, e 0 c 30;
  b 61: -1 e 2 c 30, e 0 c 31;
  b 62: -1 e 2 c 31, e 0 c 32;
  b 63: -1 e 2 c 32, e 0 c 33;
  b 64: -1 e 2 c 33, e 0 c 34;
  b 65: -1 e 2 c 34, e 0 c 35;
  b 66: -1 e 2 c 35, e 0 c 36;
  b 67: -1 e 2 c 36, e 0 c 37;
  b 68: -1 e 2 c 37, e 0 c 38;
  b 69: -1 e 2 c 38, e 0 c 39;
  b 70: -1 e 2 c 39, e 0 c 40;
;
PdefRA 1 {
GdefRA 1 /Zd 1 {50 0} {
  Prt 1 : CalLine: Impedance 0 0; ErefRA 3 { 1 85 41 };
}
}
end_momMdl;
end_ckt proj;
