-----------------------------------------------------------------------
                           Translation Log
-----------------------------------------------------------------------

-----------------------------------------------------------------------

   Application:          Agilent EMDS
   Project Generated on: Wed Mar 24 15:33:30 2010
   Source:               ADS Layout
   Translator:           EMDS for ADS Translator
   Translator Version:   1.0

-----------------------------------------------------------------------

Reading Geometry Information ...
  Geometry does not contain 3D structures...
Generating layout outline based on geometry ...
Performing initial geometry healing ... OK
Substrate Aspect Ratio: [100:1]
Modified Substrate Aspect Ratio: [300:1]
Building Agilent EMDS Solid Model ...
  Building planar Vias ...
  Building solid Vias ...
  Building substrate ...
Reading Momentum Solution Stimulus file ... 
Checking for modal ports that overlap ...
